Image_Acceleration/Image_Acceleration.sim/sim_1/behav/xsim/simulate.log
Time resolution is 1 ps
Addr =    0 RGB = b97a57, Gray = 88
Addr =    1 RGB = b97a57, Gray = 88
Addr =    2 RGB = b97a57, Gray = 88
Addr =    3 RGB = b97a57, Gray = 88
Addr =    4 RGB = b97a57, Gray = 88
Addr =    5 RGB = b97a57, Gray = 88
Addr =    6 RGB = b97a57, Gray = 88
Addr =    7 RGB = b97a57, Gray = 88
Addr =    8 RGB = b97a57, Gray = 88
Addr =    9 RGB = b97a57, Gray = 88
Addr =   10 RGB = b97a57, Gray = 88
Addr =   11 RGB = b97a57, Gray = 88
Addr =   12 RGB = b97a57, Gray = 88
Addr =   13 RGB = b97a57, Gray = 88
Addr =   14 RGB = b97a57, Gray = 88
Addr =   15 RGB = b97a57, Gray = 88
Addr =   16 RGB = b97a57, Gray = 88
Addr =   17 RGB = b97a57, Gray = 88
Addr =   18 RGB = b97a57, Gray = 88
Addr =   19 RGB = b97a57, Gray = 88
Addr =   20 RGB = b97a57, Gray = 88
Addr =   21 RGB = b97a57, Gray = 88
Addr =   22 RGB = b97a57, Gray = 88
Addr =   23 RGB = b97a57, Gray = 88
Addr =   24 RGB = b97a57, Gray = 88
Addr =   25 RGB = b97a57, Gray = 88
Addr =   26 RGB = b97a57, Gray = 88
Addr =   27 RGB = b97a57, Gray = 88
Addr =   28 RGB = b97a57, Gray = 88
Addr =   29 RGB = b97a57, Gray = 88
Addr =   30 RGB = b97a57, Gray = 88
Addr =   31 RGB = b97a57, Gray = 88
Addr =   32 RGB = ffffff, Gray = ff
Addr =   33 RGB = ffffff, Gray = ff
Addr =   34 RGB = ffffff, Gray = ff
Addr =   35 RGB = ffffff, Gray = ff
Addr =   36 RGB = ffffff, Gray = ff
Addr =   37 RGB = ffffff, Gray = ff
Addr =   38 RGB = ffffff, Gray = ff
Addr =   39 RGB = ffffff, Gray = ff
Addr =   40 RGB = ffedac, Gray = eb
Addr =   41 RGB = ffe58b, Gray = e2
Addr =   42 RGB = ffffff, Gray = ff
Addr =   43 RGB = ffffff, Gray = ff
Addr =   44 RGB = ffffff, Gray = ff
Addr =   45 RGB = ffffff, Gray = ff
Addr =   46 RGB = ffffff, Gray = ff
Addr =   47 RGB = ffffff, Gray = ff
Addr =   48 RGB = ffffff, Gray = ff
Addr =   49 RGB = ffffff, Gray = ff
Addr =   50 RGB = ffffff, Gray = ff
Addr =   51 RGB = a8a8a8, Gray = a8
Addr =   52 RGB = 858585, Gray = 85
Addr =   53 RGB = ffffff, Gray = ff
Addr =   54 RGB = ffffff, Gray = ff
Addr =   55 RGB = ffffff, Gray = ff
Addr =   56 RGB = ffe58b, Gray = e2
Addr =   57 RGB = ffc90e, Gray = c4
Addr =   58 RGB = ffffff, Gray = ff
Addr =   59 RGB = ffffff, Gray = ff
Addr =   60 RGB = ffffff, Gray = ff
Addr =   61 RGB = ffffff, Gray = ff
Addr =   62 RGB = ffffff, Gray = ff
Addr =   63 RGB = ffffff, Gray = ff
Addr =   64 RGB = ffffff, Gray = ff
Addr =   65 RGB = ffffff, Gray = ff
Addr =   66 RGB = ffffff, Gray = ff
Addr =   67 RGB = 858585, Gray = 85
Addr =   68 RGB = 000000, Gray = 00
Addr =   69 RGB = ffffff, Gray = ff
Addr =   70 RGB = ffffff, Gray = ff
Addr =   71 RGB = ffffff, Gray = ff
Addr =   72 RGB = ffffff, Gray = ff
Addr =   73 RGB = ffffff, Gray = ff
Addr =   74 RGB = ffffff, Gray = ff
Addr =   75 RGB = a8a8a8, Gray = a8
Addr =   76 RGB = 858585, Gray = 85
Addr =   77 RGB = ffffff, Gray = ff
Addr =   78 RGB = ffffff, Gray = ff
Addr =   79 RGB = ffffff, Gray = ff
Addr =   80 RGB = ffffff, Gray = ff
Addr =   81 RGB = ffffff, Gray = ff
Addr =   82 RGB = ffffff, Gray = ff
Addr =   83 RGB = ffffff, Gray = ff
Addr =   84 RGB = ffffff, Gray = ff
Addr =   85 RGB = ffffff, Gray = ff
Addr =   86 RGB = ffffff, Gray = ff
Addr =   87 RGB = ffffff, Gray = ff
Addr =   88 RGB = ffffff, Gray = ff
Addr =   89 RGB = ffffff, Gray = ff
Addr =   90 RGB = ffffff, Gray = ff
Addr =   91 RGB = 858585, Gray = 85
Addr =   92 RGB = 000000, Gray = 00
Addr =   93 RGB = ffffff, Gray = ff
Addr =   94 RGB = ffffff, Gray = ff
Addr =   95 RGB = ffffff, Gray = ff
Addr =   96 RGB = ffffff, Gray = ff
Addr =   97 RGB = ffffff, Gray = ff
Addr =   98 RGB = ffffff, Gray = ff
Addr =   99 RGB = ffffff, Gray = ff
Addr =  100 RGB = ffffff, Gray = ff
Addr =  101 RGB = ffffff, Gray = ff
Addr =  102 RGB = ffffff, Gray = ff
Addr =  103 RGB = ffffff, Gray = ff
Addr =  104 RGB = ffffff, Gray = ff
Addr =  105 RGB = ffffff, Gray = ff
Addr =  106 RGB = ffffff, Gray = ff
Addr =  107 RGB = ffffff, Gray = ff
Addr =  108 RGB = ffffff, Gray = ff
Addr =  109 RGB = ffffff, Gray = ff
Addr =  110 RGB = ffffff, Gray = ff
Addr =  111 RGB = ffffff, Gray = ff
Addr =  112 RGB = ffffff, Gray = ff
Addr =  113 RGB = ffffff, Gray = ff
Addr =  114 RGB = ffffff, Gray = ff
Addr =  115 RGB = ffffff, Gray = ff
Addr =  116 RGB = ffffff, Gray = ff
Addr =  117 RGB = ffffff, Gray = ff
Addr =  118 RGB = ffffff, Gray = ff
Addr =  119 RGB = ffffff, Gray = ff
Addr =  120 RGB = ffffff, Gray = ff
Addr =  121 RGB = ffffff, Gray = ff
Addr =  122 RGB = ffffff, Gray = ff
Addr =  123 RGB = ffffff, Gray = ff
Addr =  124 RGB = ffffff, Gray = ff
Addr =  125 RGB = ffffff, Gray = ff
Addr =  126 RGB = ffffff, Gray = ff
Addr =  127 RGB = ffffff, Gray = ff
Addr =  128 RGB = ffffff, Gray = ff
Addr =  129 RGB = ffffff, Gray = ff
Addr =  130 RGB = ffffff, Gray = ff
Addr =  131 RGB = ffffff, Gray = ff
Addr =  132 RGB = ffedac, Gray = eb
Addr =  133 RGB = ffe58b, Gray = e2
Addr =  134 RGB = ffffff, Gray = ff
Addr =  135 RGB = ffffff, Gray = ff
Addr =  136 RGB = a8a8a8, Gray = a8
Addr =  137 RGB = 858585, Gray = 85
Addr =  138 RGB = ffffff, Gray = ff
Addr =  139 RGB = ffffff, Gray = ff
Addr =  140 RGB = ffedac, Gray = eb
Addr =  141 RGB = ffe58b, Gray = e2
Addr =  142 RGB = ffffff, Gray = ff
Addr =  143 RGB = ffffff, Gray = ff
Addr =  144 RGB = ffffff, Gray = ff
Addr =  145 RGB = ffffff, Gray = ff
Addr =  146 RGB = ffffff, Gray = ff
Addr =  147 RGB = ffffff, Gray = ff
Addr =  148 RGB = ffe58b, Gray = e2
Addr =  149 RGB = ffc90e, Gray = c4
Addr =  150 RGB = ffffff, Gray = ff
Addr =  151 RGB = ffffff, Gray = ff
Addr =  152 RGB = 858585, Gray = 85
Addr =  153 RGB = 000000, Gray = 00
Addr =  154 RGB = ffffff, Gray = ff
Addr =  155 RGB = ffffff, Gray = ff
Addr =  156 RGB = ffe58b, Gray = e2
Addr =  157 RGB = ffc90e, Gray = c4
Addr =  158 RGB = ffffff, Gray = ff
Addr =  159 RGB = ffffff, Gray = ff
Addr =  160 RGB = ffffff, Gray = ff
Addr =  161 RGB = ffffff, Gray = ff
Addr =  162 RGB = ffffff, Gray = ff
Addr =  163 RGB = ffffff, Gray = ff
Addr =  164 RGB = ffffff, Gray = ff
Addr =  165 RGB = ffffff, Gray = ff
Addr =  166 RGB = ffffff, Gray = ff
Addr =  167 RGB = ffffff, Gray = ff
Addr =  168 RGB = ffffff, Gray = ff
Addr =  169 RGB = ffffff, Gray = ff
Addr =  170 RGB = ffffff, Gray = ff
Addr =  171 RGB = ffffff, Gray = ff
Addr =  172 RGB = ffffff, Gray = ff
Addr =  173 RGB = ffffff, Gray = ff
Addr =  174 RGB = ffffff, Gray = ff
Addr =  175 RGB = ffffff, Gray = ff
Addr =  176 RGB = ffffff, Gray = ff
Addr =  177 RGB = ffffff, Gray = ff
Addr =  178 RGB = ffffff, Gray = ff
Addr =  179 RGB = ffffff, Gray = ff
Addr =  180 RGB = a8a8a8, Gray = a8
Addr =  181 RGB = 858585, Gray = 85
Addr =  182 RGB = ffffff, Gray = ff
Addr =  183 RGB = ffffff, Gray = ff
Addr =  184 RGB = ffffff, Gray = ff
Addr =  185 RGB = ffffff, Gray = ff
Addr =  186 RGB = ffffff, Gray = ff
Addr =  187 RGB = ffffff, Gray = ff
Addr =  188 RGB = ffffff, Gray = ff
Addr =  189 RGB = ffffff, Gray = ff
Addr =  190 RGB = ffffff, Gray = ff
Addr =  191 RGB = ffffff, Gray = ff
Addr =  192 RGB = ffffff, Gray = ff
Addr =  193 RGB = ffffff, Gray = ff
Addr =  194 RGB = ffffff, Gray = ff
Addr =  195 RGB = ffffff, Gray = ff
Addr =  196 RGB = 858585, Gray = 85
Addr =  197 RGB = 000000, Gray = 00
Addr =  198 RGB = ffffff, Gray = ff
Addr =  199 RGB = ffffff, Gray = ff
Addr =  200 RGB = ffffff, Gray = ff
Addr =  201 RGB = ffedac, Gray = eb
Addr =  202 RGB = ffe58b, Gray = e2
Addr =  203 RGB = a8a8a8, Gray = a8
Addr =  204 RGB = 858585, Gray = 85
Addr =  205 RGB = ffffff, Gray = ff
Addr =  206 RGB = ffffff, Gray = ff
Addr =  207 RGB = ffffff, Gray = ff
Addr =  208 RGB = ffffff, Gray = ff
Addr =  209 RGB = ffffff, Gray = ff
Addr =  210 RGB = ffffff, Gray = ff
Addr =  211 RGB = ffffff, Gray = ff
Addr =  212 RGB = ffffff, Gray = ff
Addr =  213 RGB = ffffff, Gray = ff
Addr =  214 RGB = ffedac, Gray = eb
Addr =  215 RGB = ffe58b, Gray = e2
Addr =  216 RGB = ffffff, Gray = ff
Addr =  217 RGB = ffe58b, Gray = e2
Addr =  218 RGB = ffc90e, Gray = c4
Addr =  219 RGB = 858585, Gray = 85
Addr =  220 RGB = 000000, Gray = 00
Addr =  221 RGB = ffffff, Gray = ff
Addr =  222 RGB = ffffff, Gray = ff
Addr =  223 RGB = ffffff, Gray = ff
Addr =  224 RGB = ffffff, Gray = ff
Addr =  225 RGB = ffffff, Gray = ff
Addr =  226 RGB = ffffff, Gray = ff
Addr =  227 RGB = ffffff, Gray = ff
Addr =  228 RGB = ffffff, Gray = ff
Addr =  229 RGB = ffffff, Gray = ff
Addr =  230 RGB = ffe58b, Gray = e2
Addr =  231 RGB = ffc90e, Gray = c4
Addr =  232 RGB = ffffff, Gray = ff
Addr =  233 RGB = ffffff, Gray = ff
Addr =  234 RGB = ffffff, Gray = ff
Addr =  235 RGB = ffffff, Gray = ff
Addr =  236 RGB = ffffff, Gray = ff
Addr =  237 RGB = ffffff, Gray = ff
Addr =  238 RGB = ffffff, Gray = ff
Addr =  239 RGB = ffffff, Gray = ff
Addr =  240 RGB = ffffff, Gray = ff
Addr =  241 RGB = ffffff, Gray = ff
Addr =  242 RGB = ffffff, Gray = ff
Addr =  243 RGB = ffffff, Gray = ff
Addr =  244 RGB = ffffff, Gray = ff
Addr =  245 RGB = ffffff, Gray = ff
Addr =  246 RGB = ffffff, Gray = ff
Addr =  247 RGB = ffffff, Gray = ff
Addr =  248 RGB = ffffff, Gray = ff
Addr =  249 RGB = ffffff, Gray = ff
Addr =  250 RGB = ffffff, Gray = ff
Addr =  251 RGB = ffffff, Gray = ff
Addr =  252 RGB = ffffff, Gray = ff
Addr =  253 RGB = ffffff, Gray = ff
Addr =  254 RGB = ffffff, Gray = ff
Addr =  255 RGB = ffffff, Gray = ff
Test complete.
$finish called at time : 3561 ns : File "C:/Users/Jacob/Documents/Projects/FPGA_Accelerated_Image_Processing/Image_Acceleration/Image_Acceleration.srcs/sim_1/new/rgb_to_gray_tb.v" Line 53
